{
   "Clientes":[
   	{
   		"Nombre": "Juan",
 		"Apellidos": "Perez López",
 		"Genero": "masculino",
 		"Direccion": 
 		{
    		"Calle": "Gran Via, 55",
     		"Ciudad": "Barcelona",
     		"Codigo Postal": "08000"
 		},
   		"Telefonos": 
       	{ "tipo": "casa", "numero": "55555555" }
   	},
   	{
   		"Nombre": "María",
 		"Apellidos": "trujillo Tejerina",
 		"Genero": "femenino",
 		"Direccion": 
 		{
    		"Calle": "Avda. de Bruselas, 35",
     		"Ciudad": "Madrid",
     		"Codigo Postal": "28000"
 		},
   		"Telefonos": 
       	{ "tipo": "Trabajo", "numero": "66666666" }
   	}
   ]
}